{
	"class" : {
		"DefaultDB" : "MathiasBiard 3/27/2014 10:11" },
	"instance" : {
		"addProject:" : "MathiasBiard 3/27/2014 10:42",
		"projects" : "MathiasBiard 3/27/2014 10:42",
		"projects:" : "MathiasBiard 3/26/2014 11:52",
		"removeProject:" : "MathiasBiard 3/27/2014 11:00" } }
