{
	"category" : "Aurels-TaMereApp",
	"classinstvars" : [
		 ],
	"classvars" : [
		"DefaultDB" ],
	"commentStamp" : "",
	"instvars" : [
		"projects" ],
	"name" : "AMDatabase",
	"pools" : [
		 ],
	"super" : "Object",
	"type" : "normal" }
