{
	"class" : {
		 },
	"instance" : {
		"addEntry:" : "MathiasBiard 3/27/2014 10:43",
		"logEntries" : "MathiasBiard 3/27/2014 09:54",
		"logEntries:" : "MathiasBiard 3/26/2014 11:37",
		"projectName" : "MathiasBiard 3/26/2014 11:37",
		"projectName:" : "MathiasBiard 3/26/2014 11:37",
		"removeEntry:" : "MathiasBiard 3/27/2014 10:52" } }
