{
	"class" : {
		 },
	"instance" : {
		"addEntry:withAction:" : "MathiasBiard 3/26/2014 15:08",
		"entries" : "MathiasBiard 3/26/2014 15:05",
		"entries:" : "MathiasBiard 3/26/2014 15:06",
		"initialize" : "MathiasBiard 3/26/2014 15:06",
		"renderContentOn:" : "MathiasBiard 3/26/2014 15:08" } }
