{
	"category" : "Aurels-TaMereApp",
	"classinstvars" : [
		 ],
	"classvars" : [
		 ],
	"commentStamp" : "",
	"instvars" : [
		"entries" ],
	"name" : "AMMenuComponent",
	"pools" : [
		 ],
	"super" : "WAComponent",
	"type" : "normal" }
